64888 351960 443
315810 164906 443
890614 845049 445
948911 591542 525
718245 77409 509
500082 782179 509
565150 12876 470
85307 411106 449
176480 824471 509
811444 218711 509
109861 79889 354
427529 235140 449
444700 149042 449
906262 88992 525
885080 145241 525
399431 923837 525
731491 310968 509
238837 747410 509
507996 49530 449
362522 14108 443
248141 679435 509
217741 228045 368
332706 24979 443
263781 45267 443
391487 748125 509
644574 263002 509
97907 439235 449
212468 648901 509
220038 568157 470
109354 546839 470
763766 802761 468
726883 310799 509
380490 793115 509
190839 196694 360
835639 532986 509
312168 580741 470
62253 902965 525
324462 557345 470
884778 51694 525
388198 586565 470
657567 770966 504
205238 67425 383
105023 844246 525
757487 136311 509
442194 849073 525
255237 829776 509
951336 266555 525
585855 938814 525
39542 101285 351
293054 133500 443
454450 553643 470
563434 281780 470
26967 487468 449
141409 58510 354
829564 343674 509
495540 616204 470
653869 648174 385
607237 201413 470
285051 296115 389
746318 540132 509
570110 231340 470
156904 610716 470
339515 776409 509
613601 983405 525
827250 206071 509
158560 746992 509
541214 11884 470
743425 124219 509
902495 160698 525
239584 23377 443
430650 649156 509
181861 992633 525
421438 793590 509
730661 952891 525
289886 663670 509
936063 23589 525
460028 677582 509
910508 979971 507
799987 976793 525
902888 337949 525
115106 984929 525
229076 771629 509
415659 932578 525
859913 922866 476
929089 340803 525
19067 576607 470
452041 738252 509
883272 771755 525
210792 869023 525
659696 467284 509
389166 630201 509
475531 375920 449
14414 65548 340
760641 444751 509
865729 85401 525
293923 106690 443
239746 947035 525
525465 270253 470
400016 805284 509
430075 224986 449
108550 419196 449
330538 225870 443
79095 971880 525
882796 838842 432
62852 68425 330
610477 736151 509
664040 719547 504
22760 937886 525
189094 501659 449
268712 827341 509
371040 84699 443
597260 997070 525
31445 845713 525
69613 693088 509
410811 291271 449
377426 497678 449
774294 241381 509
886820 522698 525
58834 765254 509
9417 259763 443
741860 631471 504
301943 678840 509
508977 845670 525
912243 285662 525
573642 1741 470
456409 513768 470
950164 583156 525
866247 787224 525
554363 596026 434
828362 915193 525
475795 859261 525
10217 804563 509
291056 768414 509
336118 124121 443
517161 438444 470
803471 508918 509
571714 533455 452
892511 53788 525
183315 87675 383
256559 879646 525
861842 379855 525
598199 987150 525
917134 218037 525
52095 729666 509
90956 297994 443
822246 692868 504
733604 460901 509
85053 640760 509
282137 216350 443
282002 667319 509
319087 209868 443
132829 894381 525
19184 654488 509
981946 73915 525
920644 928406 476
466930 24468 449
928410 25588 525
601417 501646 470
476420 111711 449
580572 522260 452
196271 783438 509
594254 517015 452
41169 584841 470
234491 819693 509
229838 299246 443
675538 58077 509
6333 455513 449
819974 727943 468
417303 654232 509
417223 589254 470
738389 311311 509
867257 107148 525
877086 533781 525
839288 112231 525
49702 270829 443
654611 417856 509
197975 542710 470
463467 490890 413
465755 94510 449
585248 337931 470
830872 93757 509
549414 551921 377
67244 903063 525
53763 316579 443
326448 565401 470
787607 573278 509
541135 745877 509
735167 700031 504
490651 118345 449
150185 123070 375
783748 198337 509
1629 509648 449
211342 535863 470
439599 695837 509
289209 920146 525
564294 275877 470
1885 121786 354
788557 873381 525
867276 923832 476
775724 493509 509
465413 80951 449
421504 189278 449
525252 210623 470
231470 298154 407
80375 894844 525
731258 507101 509
890991 522344 525
300518 623359 470
875841 478043 525
506344 602021 470
179109 114456 383
288012 594892 470
774497 638461 504
767368 241596 509
505761 15686 449
694172 498606 509
125515 772946 509
998581 557550 525
990680 681118 525
21319 423559 449
324297 44491 443
265426 89033 443
469935 956120 525
227351 962873 525
174228 801689 509
42271 770713 509
129050 680541 509
832285 337966 509
189625 892322 525
229657 87874 386
906806 963135 507
216265 368428 443
483204 675664 509
950702 899567 507
493818 144557 449
401171 698901 509
413473 426549 418
786977 211160 509
199841 12729 383
887648 260171 525
492372 238126 449
921634 539384 525
378279 711463 509
98959 377304 443
678203 850621 525
917343 570423 525
395835 287898 441
599538 976164 525
727406 867422 525
952360 507960 525
