1 1 1
1 2 2
10 100 119
51 100 119
750000 999999 525
500000 999999 525
2000 3000 217
3000 4000 238
3001 4999 238
2500 17500 276
50 50 25
999999 999999 259
999998 999999 259
1 999999 525
7001 8999 252
1 999999 525
1 999999 525
1 999999 525
1 999999 525
1 999999 525
1 999999 525
1 999999 525
1 999999 525
1 999999 525
1 999999 525
1 999999 525
1 999999 525
50001 99999 351
400000 500000 449
2345 65432 340
891753 987324 507
13463 234623 443
47389 674893 509
866 799 148
2354 75436 340
76534 765433 509
2435 753456 509
6345 897453 525
5234 80909 351
6225 98254 351
3452 342345 443
7623 948752 525
87245 892958 525
60000 70000 335
49999 59999 340
123456 654321 509
50000 100000 351
50 100 119
60 120 119
500 1000 179
7500 15000 276
4950 9900 262
50 100 119
60 120 119
500 1000 179
7500 15000 276
4950 9900 262
75036 345890 443
4358 92458 351
431 2345 183
5243 231515 443
23462 72346 340
754652 795635 468
459999 999998 525
50 99 119
49 99 119
499 999 179
1749 3499 217
3499 6999 262
50 99 119
49 99 119
499 999 179
1749 3499 217
3499 6999 262
50 99 119
49 99 119
499 999 179
1749 3499 217
3499 6999 262
555555 666666 509
666666 777777 504
777777 888888 525
888888 999999 507
111111 222222 386
111111 111112 116
222222 333333 443
11 21 21
90 179 125
123456 234567 443
5489 9845 262
666666 999999 525
787878 878787 525
876543 987654 507
134627 756423 509
234592 346564 441
2534 67542 340
2346 67435 340
542 754362 509
3564 7456 262
3654 8456 262
26345 86454 351
293219 683489 509
141572 552530 470
40888 311764 443
801995 445959 509
56787 358556 443
535343 531731 377
648970 758470 504
23238 821802 509
916596 248887 525
230483 228572 306
63594 785541 509
911839 383868 525
585375 712493 509
414870 34785 449
479784 898419 525
122350 87607 354
780307 329698 509
394616 169663 443
538057 220647 470
225840 531836 470
889830 825378 525
906784 748163 525
434638 402233 449
651426 208478 509
878986 847820 432
184196 162094 365
773958 819395 468
453771 256669 449
223071 371310 443
355910 443833 449
327012 402607 441
263459 301631 407
924276 198623 525
875504 92345 525
369213 393455 436
176605 542181 470
916437 709809 525
120192 919126 525
718777 598913 509
944350 615381 525
990271 343790 525
786867 774173 437
729349 734952 380
690798 268321 509
116705 93086 354
809778 778872 468
701411 599828 509
984774 529650 525
185383 760678 509
355703 421822 449
21465 676412 509
274958 230684 407
848127 728670 525
429912 494817 444
258759 688604 509
797728 593909 509
372061 716250 509
537551 11111 470
617499 810831 509
838126 728540 525
84553 526748 470
956807 624393 525
821097 689640 504
683763 914466 525
572265 71173 470
757192 801283 468
33451 772892 509
34741 255226 443
737016 281876 509
65278 527318 470
921401 886819 476
505691 191901 449
225409 727981 509
689290 825843 504
705491 82080 509
3104 784217 509
936344 622595 525
755624 160483 509
765501 60220 509
309454 248709 407
352066 328492 441
225621 27105 386
627509 427870 509
649348 289152 509
837357 200793 509
289773 618788 470
402380 981833 525
395767 480102 449
483085 253665 449
748881 957179 525
769750 125246 509
511903 77235 449
44516 110725 354
17916 805496 509
930168 912663 476
805556 290650 509
828502 131548 509
152833 937773 525
546643 392341 470
885161 295473 525
27677 854909 525
766013 276449 509
167177 619301 470
327917 466859 449
485572 406394 449
311063 762797 509
633327 850377 525
736527 515789 509
894604 136005 525
785428 962083 525
568350 484704 470
979579 562580 525
374215 938622 525
403358 395616 387
351394 10042 443
755150 44211 509
665668 753287 504
312224 216378 443
322875 383678 441
830363 573969 509
744175 907646 525
825231 449201 509
721501 644324 504
973210 269771 525
528619 371555 470
790614 41168 509
98981 189595 383
148378 759847 509
468227 365522 449
871714 257477 525
875058 935425 476
754492 210261 509
866753 770836 525
157888 664877 509
38137 640555 509
377240 181364 443
362911 332692 441
855749 990720 507
208494 316929 443
234035 404464 441
150464 227794 386
909699 871105 445
435851 500837 444
776462 838044 525
708088 76410 509
978891 689700 525
933232 970571 507
391226 84547 443
615318 967017 525
809780 929827 525
