1 10 20
100 200 125
201 210 89
900 1000 174
998951 777833 525
158908 650500 509
771020 716627 468
263679 53485 443
545131 996287 525
133005 573486 470
583230 978636 525
282679 856136 525
278399 495182 449
684145 677124 380
491563 836414 509
20404 56133 340
915463 616141 525
519787 261596 470
848924 832774 525
525634 194498 470
863375 967308 507
1510 856691 525
577565 140798 470
33915 850607 525
350871 283604 441
227629 884885 525
123270 60481 354
809267 968370 525
595468 806131 509
499168 723117 509
289080 118725 443
901838 36600 525
166710 699333 509
334843 227613 443
67573 379884 443
573184 10988 470
34340 906436 525
573841 203808 470
848035 938139 476
94561 221848 386
558544 825122 509
324463 659167 509
740028 81917 509
377636 317861 441
155229 579714 470
762640 789598 468
869948 175116 525
332030 863092 525
873666 659403 525
397884 731870 509
167308 560391 470
835306 533137 509
919836 439208 525
730280 764692 424
19688 315015 443
289334 715673 509
761608 625126 509
710717 593728 509
915113 155447 525
576290 692810 509
899127 844988 445
314831 754243 509
74008 655237 509
998942 134833 525
789190 452092 509
868019 743849 525
657077 656475 429
345553 65730 443
899019 886047 445
429621 459128 400
449944 434508 400
77501 389093 443
304950 8425 443
758575 540294 509
858275 945942 507
950631 298233 525
620779 705615 509
337277 129734 443
790236 900746 525
371968 622617 470
49773 380442 443
679579 17833 509
961123 792355 525
990001 639106 525
614545 133106 470
484552 336780 449
844909 474919 525
381857 953383 525
523155 519194 364
61939 428694 449
237142 203711 443
578866 777096 509
226557 383007 443
543334 30255 470
315295 892943 525
998547 501865 525
168299 382405 443
63504 362439 443
671587 995010 525
191396 525417 470
489913 799572 509
680456 538282 509
910894 912816 401
273373 963256 525
522805 102326 470
781336 817976 468
212435 628195 509
162602 154479 383
140766 45616 354
591516 242587 470
270571 404866 441
493 286172 443
166054 985413 525
141476 556105 470
40541 66093 340
685214 627216 442
876963 193485 525
193701 914580 525
154852 58750 375
720930 100473 509
96262 175304 383
971237 810770 525
774979 734222 468
534994 527674 377
895119 133240 525
663007 136141 509
954594 728385 525
886826 830492 525
452414 527140 470
873761 628815 525
813374 180332 509
663880 820692 504
61987 6892 340
13853 247749 443
694361 462112 509
554759 604978 434
767905 489563 509
153087 946401 525
301987 74082 443
486903 841485 525
714840 827206 468
432893 992063 525
436118 576043 470
752302 627539 504
452554 366817 449
797787 479049 509
698832 591840 509
460824 38274 449
584906 959901 525
589762 326983 470
533773 438925 470
695827 506050 509
247787 756560 509
598370 785809 509
693837 866089 525
784652 615135 509
890882 620869 525
900499 768773 525
69722 444556 449
77042 54070 351
657211 410680 509
483514 291543 449
729227 584773 509
315891 897308 525
467077 795578 509
838378 612292 525
3598 157250 383
965499 843674 507
746184 651846 504
329927 191328 443
296774 266828 407
208832 103960 383
248683 298708 407
821497 898008 525
134974 61238 354
125644 51616 354
602837 485026 470
814033 926512 525
470094 654329 509
677525 59524 509
211321 722852 509
520613 89436 470
420278 424442 418
55309 92458 351
548328 999034 525
478291 285566 449
718603 484880 509
838497 450400 525
39350 577411 470
857400 841587 419
439212 981396 525
580396 508050 470
776067 486645 509
991067 71293 525
190432 908511 525
657063 51954 509
594029 179102 470
683678 829884 504
702722 484827 509
342593 795340 509
554206 177422 470
952092 96862 525
45713 551671 470
311271 395632 441
963845 439991 525
841551 761728 525
862750 407797 525
173114 278539 443
581331 47245 470
881876 379430 525
485316 369353 449
18093 800684 509
235770 24986 443
844569 638573 525
348628 228498 443
475847 684980 509
605660 445214 470
65492 24350 340
267372 431160 449
880134 267713 525
773969 574586 509
175157 578857 470
764447 349503 509
758231 870531 525
38642 369763 443
333798 34548 443
900587 847329 445
741791 714568 424
616028 402747 470
713323 441371 509
640758 968555 525
441459 464746 444
851136 225672 525
479001 847878 525
418542 979191 525
366911 37530 443
858645 196421 525
792524 735974 468
610630 258956 470
588876 831681 509
947452 756943 525
51858 876602 525
576954 417496 470
189173 280305 443
511855 383581 449
198617 16947 383
332656 845669 525
522635 679450 509
860611 569313 525
693195 284805 509
41607 932466 525
626867 794907 504
259598 516940 470
241888 213226 443
